{
  "font-faces": {
    "Verdana": "res/fonts/verdana.ttf"
  },
  "main": {
    "background": "res/backgrounds/main.jpg",
    "buttons": {
      "exit": {
        "position": {"x": 740, "y": 4, "width": 0, "height": 0},
        "images": "res/buttons/home.png"
      },
      "min": {
        "position": {"x": 1680, "y": 0, "width": 0, "height": 0},
        "images": "res/buttons/min0.jpg"
      },
      "radio": {
        "position": {"x": 40, "y": 258, "width": 0, "height": 0},
        "images": ["res/buttons/radio0.jpg", "res/buttons/radio1.jpg"]
      },
      "media": {
        "position": {"x": 290, "y": 64, "width": 0, "height": 0},
        "images": ["res/buttons/media0.jpg", "res/buttons/media1.jpg"]
      },
      "navi": {
        "position": {"x": 40, "y": 64, "width": 0, "height": 0},
        "images": ["res/buttons/navi0.jpg", "res/buttons/navi1.jpg"]
      },
      "console": {
        "position": {"x": 0, "y": 0, "width": 0, "height": 0},
        "images": ["res/buttons/min0.jpg", "res/buttons/min1.jpg"]
      }
    }
  },
  "can-panel": {
    "background": "#000000",
    "font": {
      "size": 14,
      "color": "#FFFFFF",
      "face": "Verdana"
    },
    "position": {"x": 0, "y": 0, "width": 0, "height": 0},
    "items": {
      "engine-temp": {
        "icon": "res/icons/engine-temp.jpg",
        "position": {"x": 0, "y": 0, "width": 0, "height": 0},
        "label": {
          "text": "%s°",
          "position": {"x": 2, "y": 8, "width": 0, "height": 0}
        }
      },
      "gearbox-temp": {
        "icon": "res/icons/gearbox-temp.jpg",
        "position": {"x": 100, "y": 0, "width": 100, "height": 0},
        "label": {
          "text": "%s°",
          "position": {"x": 2, "y": 8, "width": 0, "height": 0}
        }
      },
      "incar-temp": {
        "icon": "res/icons/incar-temp.jpg",
        "position": {"x": 200, "y": 0, "width": 100, "height": 0},
        "label": {
          "text": "%s°",
          "position": {"x": 2, "y": 8, "width": 0, "height": 0}
        }
      },
      "outcar-temp": {
        "icon": "res/icons/outcar-temp.jpg",
        "position": {"x": 300, "y": 0, "width": 100, "height": 0},
        "label": {
          "text": "%s°",
          "position": {"x": 2, "y": 8, "width": 0, "height": 0}
        }
      },
      "fuel-total": {
        "icon": "res/icons/fuel.png",
        "position": {"x": 400, "y": 0, "width": 100, "height": 0},
        "label": {
          "text": "%s л",
          "position": {"x": 2, "y": 8, "width": 0, "height": 0}
        }
      },
      "fuel-instant": {
        "icon": "res/icons/fuel.png",
        "position": {"x": 500, "y": 0, "width": 120, "height": 45},
        "label": {
          "text": "%s л/ч",
          "position": {"x": 2, "y": 8, "width": 0, "height": 0}
        }
      },
      "speed": {
        "position": {"x": 620, "y": 0, "width": 140, "height": 45},
        "label": {
          "text": "%s км/ч",
          "position": {"x": 2, "y": 8, "width": 0, "height": 0}
        }
      },
      "distance": {
        "position": {"x": 620, "y": 0, "width": 180, "height": 45},
        "label": {
          "text": "%s км",
          "position": {"x": 2, "y": 8, "width": 0, "height": 0}
        }
      }
    }
  },
  "radio": {
    "background": "res/backgrounds/radio.jpg",
    "buttons": {
      "exit": {
        "position": {"x": 740, "y": 4, "width": 0, "height": 0},
        "images": "res/buttons/home.png"
      },
      "minimize": {
        "position": {"x": 354, "y": 330, "width": 0, "height": 0},
        "images": ["res/buttons/radio_min0.jpg", "res/buttons/radio_min1.jpg"]
      },
      "freq-inc": {
        "position": {"x": 534, "y": 123, "width": 0, "height": 0},
        "images": "res/buttons/freq-inc.jpg"
      },
      "freq-dec": {
        "position": {"x": 212, "y": 123, "width": 0, "height": 0},
        "images": "res/buttons/freq-dec.jpg"
      },
      "station-prev": {
        "position": {"x": 271, "y": 347, "width": 0, "height": 0},
        "images": "res/buttons/station-prev.jpg"
      },
      "station-next": {
        "position": {"x": 469, "y": 347, "width": 0, "height": 0},
        "images": "res/buttons/station-next.jpg"
      },
      "stations-prev": {
        "position": {"x": 677, "y": 180, "width": 0, "height": 0},
        "images": "res/buttons/stations-prev.jpg"
      },
      "stations-next": {
        "position": {"x": 717, "y": 180, "width": 0, "height": 0},
        "images": "res/buttons/stations-next.jpg"
      },
      "band": {
        "position": {"x": 30, "y": 80, "width": 120, "height": 24},
        "images": "res/buttons/radio-band.png",
        "font": {
          "size": 8,
          "color": "#FFFFFF",
          "face": "Verdana"
        }
      },
      "range": {
        "position": {"x": 30, "y": 114, "width": 120, "height": 24},
        "images": "res/buttons/radio-range.png",
        "font": {
          "size": 8,
          "color": "#FFFFFF",
          "face": "Verdana"
        }
      }
    },
    "panels": {
      "stations": {
        "position": {"x": 26, "y": 230, "width": 750, "height": 65},
        "background": "#000000",
        "font": {
          "size": 12,
          "color": "#FFFFFF",
          "face": "Verdana"
        }
      }
    },
    "labels": {
      "freq": {
        "position": {"x": 270, "y": 110, "width": 260, "height": 120},
        "background": "#000000",
        "align": "center",
        "font": {
          "size": 48,
          "color": "#ffbb33",
          "face": "Verdana"
        }
      }
    }
  },
  "player": {
    "background": "#CCCCCC"
  }
}